06 - Cutaneous Neurofibroma patient Variables
…
top.genes=select(gene.cors,corVal)%>%distinct()%>%arrange(desc(corVal))%>%select(Symbol)

## Adding missing grouping variables: `Symbol`

bottom.genes=select(gene.cors,corVal)%>%distinct()%>%arrange(corVal)%>%select(Symbol)

## Adding missing grouping variables: `Symbol`

Now we have the genes most correlated with tumor size

top.genes

## # A tibble: 19,098 x 1
## # Groups:   Symbol [19,098]
##    Symbol 
##    <chr>  
##  1 AKAP12 
##  2 SOCS2  
##  3 DAPK2  
##  4 SVEP1  
##  5 RGL1   
##  6 DTX4   
##  7 HOXB3  
##  8 ADAMTS5
##  9 VPS35L 
## 10 ABI3BP 
## #  with 19,088 more rows

and the genes least correlated

bottom.genes

## # A tibble: 19,098 x 1
## # Groups:   Symbol [19,098]
##    Symbol 
##    <chr>  
##  1 DAPL1  
##  2 BPNT1  
##  3 GSKIP  
##  4 RPUSD3 
##  5 ZNF707 
##  6 IGHMBP2
##  7 WDR12  
##  8 IPO13  
##  9 MARCH9 
## 10 SP6    
## #  with 19,088 more rows
…
