10 - pNF progression in Immune Signatures
…
For each tumor type, evaluate the significance in differences with/without MPNST development.

mpnst.res<-tab%>%
  subset(tumorType=='Plexiform Neurofibroma')%>%
  spread(key=MPNST,value=score)%>%
  group_by(method,cell_type)%>%
  mutate(pval=t.test(Present,Absent)$p.value)%>%
  select(method,cell_type,pval)%>%distinct()%>%
  ungroup()%>%
  mutate(correctedP=p.adjust(pval))

mpnst.res%>%arrange(pval)

## # A tibble: 49 x 4
##    method      cell_type             pval correctedP
##    <chr>       <chr>                <dbl>      <dbl>
##  1 mcp_counter T cell CD8+         0.0292          1
##  2 cibersort   Macrophage M1       0.0975          1
##  3 xcell       Macrophage M1       0.138           1
##  4 xcell       Macrophage M2       0.149           1
##  5 cibersort   Monocyte            0.167           1
##  6 xcell       Macrophage          0.171           1
##  7 mcp_counter Macrophage/Monocyte 0.197           1
##  8 mcp_counter Monocyte            0.197           1
##  9 cibersort   NK cell activated   0.217           1
## 10 mcp_counter T cell              0.221           1
## #  with 39 more rows
…
Here we group neurofibromas with pNFs to see if we get the same result

nf.res<-tab%>%
  subset(tumorType%in%c('Plexiform Neurofibroma','Neurofibroma'))%>%
  spread(key=MPNST,value=score)%>%
  group_by(method,cell_type)%>%
  mutate(pval=t.test(Present,Absent)$p.value)%>%
  select(method,cell_type,pval)%>%distinct()%>%
  ungroup()%>%
  mutate(correctedP=p.adjust(pval))

nf.res%>%arrange(pval)

## # A tibble: 49 x 4
##    method      cell_type                        pval correctedP
##    <chr>       <chr>                           <dbl>      <dbl>
##  1 cibersort   Macrophage M1            0.0000000375 0.00000169
##  2 cibersort   Monocyte                 0.00294      0.129     
##  3 cibersort   T cell follicular helper 0.00610      0.262     
##  4 cibersort   NK cell activated        0.0190       0.798     
##  5 cibersort   Dendritic cell activated 0.0523       1         
##  6 cibersort   Mast cell activated      0.0532       1         
##  7 mcp_counter Macrophage/Monocyte      0.0725       1         
##  8 mcp_counter Monocyte                 0.0725       1         
##  9 cibersort   Eosinophil               0.158        1         
## 10 xcell       T cell CD8+              0.173        1         
## #  with 39 more rows
…
