11 - Immune Phenotype by genetic mutation
…
## # A tibble: 21 x 5
##    cell_type       method    gene             pval    corP
##    <chr>           <chr>     <chr>           <dbl>   <dbl>
##  1 NK cell resting cibersort AMPD1    0.00000122   0.164  
##  2 NK cell resting cibersort ANKRD24  0.0000000169 0.00229
##  3 NK cell resting cibersort ATP8B4   0.00000122   0.164  
##  4 NK cell resting cibersort CCL25    0.00000122   0.164  
##  5 NK cell resting cibersort FAM21C   0.00000122   0.164  
##  6 NK cell resting cibersort GLMN     0.00000122   0.164  
##  7 NK cell resting cibersort GOLGA6A  0.00000122   0.164  
##  8 NK cell resting cibersort IGHV3-66 0.00000122   0.164  
##  9 NK cell resting cibersort LGALS9C  0.00000122   0.164  
## 10 NK cell resting cibersort NID1     0.00000122   0.164  
## #  with 11 more rows
…
