Tumor type association with latent variable correlated viper protein expression in NF tumors
…
  res <- x[['res']] %>%  #we need to fix p.adj because of the way this was run
    mutate(p.adjust = p.adjust(pvalue, n = nrow(tidy))) %>% 
    mutate(lv = x[['latent_var']])
  
  viper_res %>% 
    filter(latent_var %in% res$lv) %>% 
    filter(corVal > 0.65) %>% 
    filter(gene %in% term2gene$gene)
  
  # cowplot::plot_grid(plt, tab_1, tab_2,tab_3, nrow=4,ncol=1, rel_heights = c(5,1,1))
})

## [[1]]
## # A tibble: 69 x 6
##    ROW_ID ROW_VERSION latent_var gene   corVal numSamps
##     <dbl>       <dbl> <chr>      <chr>   <dbl>    <dbl>
##  1 785877         116 LV 303     ABL1    0.673       77
##  2 785969         116 LV 303     ADRA2B  0.755       77
##  3 786033         116 LV 303     ALK     0.664       77
##  4 786256         116 LV 303     ATM     0.673       77
##  5 786266         116 LV 303     ATR     0.663       77
##  6 786279         116 LV 303     AVPR1B  0.698       77
##  7 786382         116 LV 303     BRD4    0.691       77
##  8 786389         116 LV 303     BRPF1   0.741       77
##  9 786391         116 LV 303     BRSK1   0.821       77
## 10 786439         116 LV 303     CAMKK2  0.684       77
## #  with 59 more rows
## 
## [[2]]
## # A tibble: 83 x 6
##    ROW_ID ROW_VERSION latent_var gene     corVal numSamps
##     <dbl>       <dbl> <chr>      <chr>     <dbl>    <dbl>
##  1 840705         124 LV 380     ABL1      0.678       77
##  2 840729         124 LV 380     ACVR1B    0.690       77
##  3 840857         124 LV 380     AKT2      0.674       77
##  4 840861         124 LV 380     ALK       0.705       77
##  5 841107         124 LV 380     AVPR1B    0.669       77
##  6 841210         124 LV 380     BRD4      0.757       77
##  7 841217         124 LV 380     BRPF1     0.788       77
##  8 841219         124 LV 380     BRSK1     0.690       77
##  9 841267         124 LV 380     CAMKK2    0.740       77
## 10 841423         124 LV 380     CDC42BPB  0.680       77
## #  with 73 more rows
## 
## [[3]]
## # A tibble: 27 x 6
##     ROW_ID ROW_VERSION latent_var gene   corVal numSamps
##      <dbl>       <dbl> <chr>      <chr>   <dbl>    <dbl>
##  1 1139746         165 LV 839     C3AR1   0.712       77
##  2 1139747         165 LV 839     C5AR1   0.798       77
##  3 1139846         165 LV 839     CCL2    0.709       77
##  4 1140166         165 LV 839     CSF1R   0.714       77
##  5 1140210         165 LV 839     CXCR4   0.653       77
##  6 1140737         165 LV 839     FPR1    0.838       77
##  7 1140738         165 LV 839     FPR2    0.742       77
##  8 1140954         165 LV 839     GPR183  0.694       77
##  9 1140986         165 LV 839     GPR84   0.806       77
## 10 1141008         165 LV 839     GRB2    0.752       77
## #  with 17 more rows
…
